…
Add the following line and save:

```r
.dlxdbpath = "R:/_appl/Haver/DATA/"
```

## Usage

To import a series, you must pass a (optionally named) character vector of Haver series codes.

```r
import_haver(series = c("GDPH@USECON"))

# A tibble: 295 x 2
   date        gdph
   <date>     <dbl>
 1 1947-03-31 2033.
 2 1947-06-30 2028.
 3 1947-09-30 2024.
 4 1947-12-31 2055.
 5 1948-03-31 2086 
 6 1948-06-30 2120.
 7 1948-09-30 2133.
 8 1948-12-31 2135 
 9 1949-03-31 2106.
10 1949-06-30 2098.
# ... with 285 more rows
```

```r
import_haver(series = c(real_gdp = "GDPH@USECON"))

# A tibble: 295 x 2
   date       real_gdp
   <date>        <dbl>
 1 1947-03-31    2033.
 2 1947-06-30    2028.
 3 1947-09-30    2024.
 4 1947-12-31    2055.
 5 1948-03-31    2086 
 6 1948-06-30    2120.
 7 1948-09-30    2133.
 8 1948-12-31    2135 
 9 1949-03-31    2106.
10 1949-06-30    2098.
# ... with 285 more rows
```
…
